; Engine configuration file.
; It's best edited using the editor UI and not directly,
; since the parameters that go here are not all obvious.
;
; Format:
;   [section] ; section goes between []
;   param=value ; assign values to parameters

config_version=4

_global_script_classes=[  ]
_global_script_class_icons={

}

[application]

config/name="GroBlokkz"
run/main_scene="res://Game.tscn"
config/icon="res://icon.png"

[display]

window/size/width=720
window/size/height=720
window/size/resizable=false
window/size/fullscreen=true
window/vsync/use_vsync=false
window/stretch/mode="2d"
window/stretch/aspect="keep"

[rendering]

quality/driver/driver_name="GLES2"
quality/intended_usage/framebuffer_allocation=0
quality/intended_usage/framebuffer_allocation.mobile=1
environment/default_environment="res://default_env.tres"
